Derive an SDTM variable with a hardcoded value — harcode • sdtm.oak
…
# Controlled terminology specification
(ct_spec <- read_ct_spec_example("ct-01-cm"))
#> # A tibble: 33 × 8
#>    codelist_code term_code CodedData term_value collected_value    
#>    <chr>         <chr>     <chr>     <chr>      <chr>              
#>  1 C71113        C25473    QD        QD         QD (Every Day)     
#>  2 C71113        C64496    BID       BID        BID (Twice a Day)  
#>  3 C71113        C64499    PRN       PRN        PRN (As Needed)    
#>  4 C71113        C64516    Q2H       Q2H        Q2H (Every 2 Hours)
#>  5 C71113        C64530    QID       QID        QID (4 Times a Day)
#>  6 C66726        C25158    CAPSULE   CAPSULE    Capsule            
#>  7 C66726        C25394    PILL      PILL       Pill               
#>  8 C66726        C29167    LOTION    LOTION     Lotion             
#>  9 C66726        C42887    AEROSOL   AEROSOL    Aerosol            
#> 10 C66726        C42944    INHALANT  INHALANT   Inhalant           
#> # ℹ 23 more rows
#> # ℹ 3 more variables: term_preferred_term <chr>, term_synonyms <chr>,
#> #   raw_codelist <chr>
…
